^C:\USERS\NETWAVE\DOCUMENTS\VISUAL STUDIO 2013\PROJECTS\MTMATRIX\MTMATRIX\DEBUG\MAINCPP.OBJ
C:\WINDOWS\SYSTEM32\TZRES.DLL
C:\USERS\NETWAVE\DOCUMENTS\VISUAL STUDIO 2013\PROJECTS\MTMATRIX\MTMATRIX\THREADPOOLIB\DEBUG\THREADPOOL.LIB
C:\USERS\NETWAVE\DOCUMENTS\VISUAL STUDIO 2013\PROJECTS\MTMATRIX\MTMATRIX\DEBUG\MAINCPP.OBJ
C:\WINDOWS\GLOBALIZATION\SORTING\SORTDEFAULT.NLS
