^C:\USERS\NETWAVE\DOCUMENTS\VISUAL STUDIO 2013\PROJECTS\MTMATRIX\MTMATRIXTEST\MTMATRIXTEST.CPP
/c /I"C:\Users\Netwave\Documents\Visual Studio 2013\Projects\MtMatrix\MtMatrix" /ZI /nologo /W3 /WX- /Od /Oy- /D WIN32 /D _DEBUG /D _CONSOLE /D _UNICODE /D UNICODE /Gm /EHsc /RTC1 /MDd /GS /fp:precise /Zc:wchar_t /Zc:forScope /Fo"DEBUG\\" /Fd"DEBUG\VC120.PDB" /Gd /TP /analyze- C:\USERS\NETWAVE\DOCUMENTS\VISUAL STUDIO 2013\PROJECTS\MTMATRIX\MTMATRIXTEST\MTMATRIXTEST.CPP
^C:\USERS\NETWAVE\DOCUMENTS\VISUAL STUDIO 2013\PROJECTS\MTMATRIX\MTMATRIXTEST\STDAFX.CPP
/c /I"C:\Users\Netwave\Documents\Visual Studio 2013\Projects\MtMatrix\MtMatrix" /ZI /nologo /W3 /WX- /Od /Oy- /D WIN32 /D _DEBUG /D _CONSOLE /D _UNICODE /D UNICODE /Gm /EHsc /RTC1 /MDd /GS /fp:precise /Zc:wchar_t /Zc:forScope /Fo"DEBUG\\" /Fd"DEBUG\VC120.PDB" /Gd /TP /analyze- C:\USERS\NETWAVE\DOCUMENTS\VISUAL STUDIO 2013\PROJECTS\MTMATRIX\MTMATRIXTEST\STDAFX.CPP
