^C:\USERS\NETWAVE\DOCUMENTS\VISUAL STUDIO 2013\PROJECTS\MTMATRIX\MTMATRIXTEST\MTMATRIXTEST.CPP|C:\USERS\NETWAVE\DOCUMENTS\VISUAL STUDIO 2013\PROJECTS\MTMATRIX\MTMATRIXTEST\STDAFX.CPP
C:\USERS\NETWAVE\DOCUMENTS\VISUAL STUDIO 2013\PROJECTS\MTMATRIX\MTMATRIXTEST\DEBUG\VC120.PDB
C:\USERS\NETWAVE\DOCUMENTS\VISUAL STUDIO 2013\PROJECTS\MTMATRIX\MTMATRIXTEST\DEBUG\VC120.IDB
C:\USERS\NETWAVE\DOCUMENTS\VISUAL STUDIO 2013\PROJECTS\MTMATRIX\MTMATRIXTEST\DEBUG\MTMATRIXTEST.OBJ
C:\USERS\NETWAVE\DOCUMENTS\VISUAL STUDIO 2013\PROJECTS\MTMATRIX\MTMATRIXTEST\DEBUG\STDAFX.OBJ
^C:\USERS\NETWAVE\DOCUMENTS\VISUAL STUDIO 2013\PROJECTS\MTMATRIX\MTMATRIXTEST\MTMATRIXTEST.CPP
C:\USERS\NETWAVE\DOCUMENTS\VISUAL STUDIO 2013\PROJECTS\MTMATRIX\MTMATRIXTEST\DEBUG\VC120.PDB
C:\USERS\NETWAVE\DOCUMENTS\VISUAL STUDIO 2013\PROJECTS\MTMATRIX\MTMATRIXTEST\DEBUG\VC120.IDB
C:\USERS\NETWAVE\DOCUMENTS\VISUAL STUDIO 2013\PROJECTS\MTMATRIX\MTMATRIXTEST\DEBUG\MTMATRIXTEST.OBJ
^C:\USERS\NETWAVE\DOCUMENTS\VISUAL STUDIO 2013\PROJECTS\MTMATRIX\MTMATRIXTEST\STDAFX.CPP
C:\USERS\NETWAVE\DOCUMENTS\VISUAL STUDIO 2013\PROJECTS\MTMATRIX\MTMATRIXTEST\DEBUG\VC120.PDB
